{
  "project_info": {
    "project_number": "100048124031",
    "project_id": "optimise-2-release",
    "storage_bucket": "optimise-2-release.appspot.com"
  },
  "client": [
    {
      "client_info": {
        "mobilesdk_app_id": "1:100048124031:android:a7de840d5552d4181f274a",
        "android_client_info": {
          "package_name": "uk.co.symec.optimise2"
        }
      },
      "oauth_client": [
        {
          "client_id": "100048124031-no443b5vgm95o3ppjuaef7lur6hc790n.apps.googleusercontent.com",
          "client_type": 3
        }
      ],
      "api_key": [
        {
          "current_key": "AIzaSyC4zUwnU9JBv_R0ntcKgtLnIrTw42kf0fg"
        }
      ],
      "services": {
        "appinvite_service": {
          "other_platform_oauth_client": [
            {
              "client_id": "100048124031-no443b5vgm95o3ppjuaef7lur6hc790n.apps.googleusercontent.com",
              "client_type": 3
            }
          ]
        }
      }
    }
  ],
  "configuration_version": "1"
}