{
  "formatVersion": 1,
  "database": {
    "version": 1,
    "identityHash": "2012d8ae97862bf8ff5e18619451abd5",
    "entities": [
      {
        "tableName": "battery_usage",
        "createSql": "CREATE TABLE IF NOT EXISTS `${TABLE_NAME}` (`date` INTEGER NOT NULL, `health` TEXT, `power_source` TEXT, `status` TEXT, `voltage` REAL NOT NULL, `temp` REAL NOT NULL, `battery_capacity` INTEGER NOT NULL, `current_now` INTEGER NOT NULL, `current_avg` INTEGER NOT NULL, `remaining_capacity` INTEGER NOT NULL, PRIMARY KEY(`date`))",
        "fields": [
          {
            "fieldPath": "date",
            "columnName": "date",
            "affinity": "INTEGER",
            "notNull": true
          },
          {
            "fieldPath": "health",
            "columnName": "health",
            "affinity": "TEXT",
            "notNull": false
          },
          {
            "fieldPath": "powerSource",
            "columnName": "power_source",
            "affinity": "TEXT",
            "notNull": false
          },
          {
            "fieldPath": "status",
            "columnName": "status",
            "affinity": "TEXT",
            "notNull": false
          },
          {
            "fieldPath": "voltage",
            "columnName": "voltage",
            "affinity": "REAL",
            "notNull": true
          },
          {
            "fieldPath": "temp",
            "columnName": "temp",
            "affinity": "REAL",
            "notNull": true
          },
          {
            "fieldPath": "batteryCapacity",
            "columnName": "battery_capacity",
            "affinity": "INTEGER",
            "notNull": true
          },
          {
            "fieldPath": "currentNow",
            "columnName": "current_now",
            "affinity": "INTEGER",
            "notNull": true
          },
          {
            "fieldPath": "currentAvg",
            "columnName": "current_avg",
            "affinity": "INTEGER",
            "notNull": true
          },
          {
            "fieldPath": "remainingCapacity",
            "columnName": "remaining_capacity",
            "affinity": "INTEGER",
            "notNull": true
          }
        ],
        "primaryKey": {
          "columnNames": [
            "date"
          ],
          "autoGenerate": false
        },
        "indices": [],
        "foreignKeys": []
      },
      {
        "tableName": "screen_on_stats",
        "createSql": "CREATE TABLE IF NOT EXISTS `${TABLE_NAME}` (`date` INTEGER NOT NULL, `screen_on` INTEGER NOT NULL, `in_foreground` INTEGER NOT NULL, PRIMARY KEY(`date`))",
        "fields": [
          {
            "fieldPath": "date",
            "columnName": "date",
            "affinity": "INTEGER",
            "notNull": true
          },
          {
            "fieldPath": "screenOn",
            "columnName": "screen_on",
            "affinity": "INTEGER",
            "notNull": true
          },
          {
            "fieldPath": "inForeground",
            "columnName": "in_foreground",
            "affinity": "INTEGER",
            "notNull": true
          }
        ],
        "primaryKey": {
          "columnNames": [
            "date"
          ],
          "autoGenerate": false
        },
        "indices": [],
        "foreignKeys": []
      },
      {
        "tableName": "test_result",
        "createSql": "CREATE TABLE IF NOT EXISTS `${TABLE_NAME}` (`date` INTEGER NOT NULL, `longitude` REAL NOT NULL, `latitude` REAL NOT NULL, `is_screen_on` INTEGER NOT NULL, `free_space` INTEGER NOT NULL, `total_space` INTEGER NOT NULL, `free_memory` INTEGER NOT NULL, `total_memory` INTEGER NOT NULL, PRIMARY KEY(`date`))",
        "fields": [
          {
            "fieldPath": "date",
            "columnName": "date",
            "affinity": "INTEGER",
            "notNull": true
          },
          {
            "fieldPath": "longitude",
            "columnName": "longitude",
            "affinity": "REAL",
            "notNull": true
          },
          {
            "fieldPath": "latitude",
            "columnName": "latitude",
            "affinity": "REAL",
            "notNull": true
          },
          {
            "fieldPath": "isScreenOn",
            "columnName": "is_screen_on",
            "affinity": "INTEGER",
            "notNull": true
          },
          {
            "fieldPath": "freeSpace",
            "columnName": "free_space",
            "affinity": "INTEGER",
            "notNull": true
          },
          {
            "fieldPath": "totalSpace",
            "columnName": "total_space",
            "affinity": "INTEGER",
            "notNull": true
          },
          {
            "fieldPath": "freeMemory",
            "columnName": "free_memory",
            "affinity": "INTEGER",
            "notNull": true
          },
          {
            "fieldPath": "totalMemory",
            "columnName": "total_memory",
            "affinity": "INTEGER",
            "notNull": true
          }
        ],
        "primaryKey": {
          "columnNames": [
            "date"
          ],
          "autoGenerate": false
        },
        "indices": [],
        "foreignKeys": []
      }
    ],
    "views": [],
    "setupQueries": [
      "CREATE TABLE IF NOT EXISTS room_master_table (id INTEGER PRIMARY KEY,identity_hash TEXT)",
      "INSERT OR REPLACE INTO room_master_table (id,identity_hash) VALUES(42, '2012d8ae97862bf8ff5e18619451abd5')"
    ]
  }
}